127.0.0.1 0 1
123.57.55.128 0 1
0 123.57.55.128 1
112.74.211.99 0 1
0 112.74.211.99 1
112.126.70.236 0 1
0 112.126.70.236 1
123.57.154.117 0 1
0 123.57.154.117 1
10.163.8.62 0 1
0 10.163.8.62 1
123.57.55.128 0 1
47.94.37.16 0 1
10.31.150.60 0 1
0 10.31.150.60 1
47.95.32.119 0 1
0 47.95.32.119 1